0^^^^0~~~~999.889
0^^^^1~~~~999.889
0^^^^-1~~~~999.889
1&FL^^^^0~~~~-1.11111
1&FL^^^^1~~~~-1.11111
1&FL^^^^-1~~~~-1.11111
1&FR^^^^0~~~~-1.11111
1&FR^^^^1~~~~-1.11111
1&FR^^^^-1~~~~-1.11111
1&SL^^^^0~~~~-1.11111
1&SL^^^^1~~~~-1.11111
1&SL^^^^-1~~~~-1.11111
1&SR^^^^0~~~~-1.11111
1&SR^^^^1~~~~-1.11111
1&SR^^^^-1~~~~-1.11111
2&FL^^^^0~~~~-1.11111
2&FL^^^^1~~~~-1.11111
2&FL^^^^-1~~~~-1.11111
2&FR^^^^0~~~~-0.110101
2&FR^^^^1~~~~-1.11111
2&FR^^^^-1~~~~-1.11111
2&SL^^^^0~~~~-1.11111
2&SL^^^^1~~~~-1.11111
2&SL^^^^-1~~~~-1.11111
2&SR^^^^0~~~~-1.01101
2&SR^^^^1~~~~-1.11111
2&SR^^^^-1~~~~-1.11111
3&FL^^^^0~~~~0
3&FL^^^^1~~~~0
3&FL^^^^-1~~~~0
3&FR^^^^0~~~~8.89899
3&FR^^^^1~~~~-1.11111
3&FR^^^^-1~~~~-1.11111
3&SL^^^^0~~~~-1.11111
3&SL^^^^1~~~~-1.11111
3&SL^^^^-1~~~~-1.11111
3&SR^^^^0~~~~-1.11111
3&SR^^^^1~~~~-1.11111
3&SR^^^^-1~~~~-0.110101
4&FL^^^^0~~~~0
4&FL^^^^1~~~~0
4&FL^^^^-1~~~~0
4&FR^^^^0~~~~-1.11111
4&FR^^^^1~~~~-1.11111
4&FR^^^^-1~~~~98.9889
4&SL^^^^0~~~~-1.11111
4&SL^^^^1~~~~-1.1111
4&SL^^^^-1~~~~-1.11111
4&SR^^^^0~~~~-1.11111
4&SR^^^^1~~~~-1.11111
4&SR^^^^-1~~~~8.8989
;;;;;;;;;;
