-1^^^^0
C&FL&LL&FL^^^^0
C&FL&LL&FR^^^^0
C&FL&LL&SL^^^^0
C&FL&LL&SR^^^^0
C&FL&LR&FL^^^^0
C&FL&LR&FR^^^^0
C&FL&LR&SL^^^^0
C&FL&LR&SR^^^^0
C&FL&ML&FL^^^^0
C&FL&ML&FR^^^^0
C&FL&ML&SL^^^^0
C&FL&ML&SR^^^^0
C&FL&MR&FL^^^^0
C&FL&MR&FR^^^^0
C&FL&MR&SL^^^^0
C&FL&MR&SR^^^^0
C&FL&SL&FL^^^^0
C&FL&SL&FR^^^^0
C&FL&SL&SL^^^^0
C&FL&SL&SR^^^^0
C&FL&SR&FL^^^^0
C&FL&SR&FR^^^^0
C&FL&SR&SL^^^^0
C&FL&SR&SR^^^^0
C&FR&LL&FL^^^^0
C&FR&LL&FR^^^^0
C&FR&LL&SL^^^^0
C&FR&LL&SR^^^^0
C&FR&LR&FL^^^^0
C&FR&LR&FR^^^^0
C&FR&LR&SL^^^^0
C&FR&LR&SR^^^^0
C&FR&ML&FL^^^^0
C&FR&ML&FR^^^^0
C&FR&ML&SL^^^^0
C&FR&ML&SR^^^^0
C&FR&MR&FL^^^^0
C&FR&MR&FR^^^^0
C&FR&MR&SL^^^^0
C&FR&MR&SR^^^^0
C&FR&SL&FL^^^^0
C&FR&SL&FR^^^^0
C&FR&SL&SL^^^^0
C&FR&SL&SR^^^^0
C&FR&SR&FL^^^^0
C&FR&SR&FR^^^^0
C&FR&SR&SL^^^^0
C&FR&SR&SR^^^^0
C&SL&LL&FL^^^^0
C&SL&LL&FR^^^^0
C&SL&LL&SL^^^^0
C&SL&LL&SR^^^^0
C&SL&LR&FL^^^^0
C&SL&LR&FR^^^^0
C&SL&LR&SL^^^^0
C&SL&LR&SR^^^^0
C&SL&ML&FL^^^^0
C&SL&ML&FR^^^^0
C&SL&ML&SL^^^^0
C&SL&ML&SR^^^^0
C&SL&MR&FL^^^^0
C&SL&MR&FR^^^^0
C&SL&MR&SL^^^^0
C&SL&MR&SR^^^^0
C&SL&SL&FL^^^^0
C&SL&SL&FR^^^^0
C&SL&SL&SL^^^^0
C&SL&SL&SR^^^^0
C&SL&SR&FL^^^^0
C&SL&SR&FR^^^^0
C&SL&SR&SL^^^^0
C&SL&SR&SR^^^^0
C&SR&LL&FL^^^^0
C&SR&LL&FR^^^^0
C&SR&LL&SL^^^^0
C&SR&LL&SR^^^^0
C&SR&LR&FL^^^^0
C&SR&LR&FR^^^^0
C&SR&LR&SL^^^^0
C&SR&LR&SR^^^^0
C&SR&ML&FL^^^^0
C&SR&ML&FR^^^^0
C&SR&ML&SL^^^^0
C&SR&ML&SR^^^^0
C&SR&MR&FL^^^^0
C&SR&MR&FR^^^^0
C&SR&MR&SL^^^^0
C&SR&MR&SR^^^^0
C&SR&SL&FL^^^^0
C&SR&SL&FR^^^^0
C&SR&SL&SL^^^^0
C&SR&SL&SR^^^^0
C&SR&SR&FL^^^^0
C&SR&SR&FR^^^^0
C&SR&SR&SL^^^^0
C&SR&SR&SR^^^^0
L&FL&LL&FL^^^^0
L&FL&LL&FR^^^^0
L&FL&LL&SL^^^^0
L&FL&LL&SR^^^^0
L&FL&LR&FL^^^^0
L&FL&LR&FR^^^^0
L&FL&LR&SL^^^^0
L&FL&LR&SR^^^^0
L&FL&ML&FL^^^^0
L&FL&ML&FR^^^^0
L&FL&ML&SL^^^^0
L&FL&ML&SR^^^^0
L&FL&MR&FL^^^^0
L&FL&MR&FR^^^^0
L&FL&MR&SL^^^^0
L&FL&MR&SR^^^^0
L&FL&SL&FL^^^^0
L&FL&SL&FR^^^^0
L&FL&SL&SL^^^^0
L&FL&SL&SR^^^^0
L&FL&SR&FL^^^^0
L&FL&SR&FR^^^^0
L&FL&SR&SL^^^^0
L&FL&SR&SR^^^^0
L&FR&LL&FL^^^^0
L&FR&LL&FR^^^^0
L&FR&LL&SL^^^^0
L&FR&LL&SR^^^^0
L&FR&LR&FL^^^^0
L&FR&LR&FR^^^^0
L&FR&LR&SL^^^^0
L&FR&LR&SR^^^^0
L&FR&ML&FL^^^^0
L&FR&ML&FR^^^^0
L&FR&ML&SL^^^^0
L&FR&ML&SR^^^^0
L&FR&MR&FL^^^^0
L&FR&MR&FR^^^^0
L&FR&MR&SL^^^^0
L&FR&MR&SR^^^^0
L&FR&SL&FL^^^^0
L&FR&SL&FR^^^^0
L&FR&SL&SL^^^^0
L&FR&SL&SR^^^^0
L&FR&SR&FL^^^^0
L&FR&SR&FR^^^^0
L&FR&SR&SL^^^^0
L&FR&SR&SR^^^^0
L&SL&LL&FL^^^^0
L&SL&LL&FR^^^^0
L&SL&LL&SL^^^^0
L&SL&LL&SR^^^^0
L&SL&LR&FL^^^^0
L&SL&LR&FR^^^^0
L&SL&LR&SL^^^^0
L&SL&LR&SR^^^^0
L&SL&ML&FL^^^^0
L&SL&ML&FR^^^^0
L&SL&ML&SL^^^^0
L&SL&ML&SR^^^^0
L&SL&MR&FL^^^^0
L&SL&MR&FR^^^^0
L&SL&MR&SL^^^^0
L&SL&MR&SR^^^^0
L&SL&SL&FL^^^^0
L&SL&SL&FR^^^^0
L&SL&SL&SL^^^^0
L&SL&SL&SR^^^^0
L&SL&SR&FL^^^^0
L&SL&SR&FR^^^^0
L&SL&SR&SL^^^^0
L&SL&SR&SR^^^^0
L&SR&LL&FL^^^^0
L&SR&LL&FR^^^^0
L&SR&LL&SL^^^^0
L&SR&LL&SR^^^^0
L&SR&LR&FL^^^^0
L&SR&LR&FR^^^^0
L&SR&LR&SL^^^^0
L&SR&LR&SR^^^^0
L&SR&ML&FL^^^^0
L&SR&ML&FR^^^^0
L&SR&ML&SL^^^^0
L&SR&ML&SR^^^^0
L&SR&MR&FL^^^^0
L&SR&MR&FR^^^^0
L&SR&MR&SL^^^^0
L&SR&MR&SR^^^^0
L&SR&SL&FL^^^^0
L&SR&SL&FR^^^^0
L&SR&SL&SL^^^^0
L&SR&SL&SR^^^^0
L&SR&SR&FL^^^^0
L&SR&SR&FR^^^^0
L&SR&SR&SL^^^^0
L&SR&SR&SR^^^^0
R&FL&LL&FL^^^^0
R&FL&LL&FR^^^^0
R&FL&LL&SL^^^^0
R&FL&LL&SR^^^^0
R&FL&LR&FL^^^^0
R&FL&LR&FR^^^^0
R&FL&LR&SL^^^^0
R&FL&LR&SR^^^^0
R&FL&ML&FL^^^^0
R&FL&ML&FR^^^^0
R&FL&ML&SL^^^^0
R&FL&ML&SR^^^^0
R&FL&MR&FL^^^^0
R&FL&MR&FR^^^^0
R&FL&MR&SL^^^^0
R&FL&MR&SR^^^^0
R&FL&SL&FL^^^^0
R&FL&SL&FR^^^^0
R&FL&SL&SL^^^^0
R&FL&SL&SR^^^^0
R&FL&SR&FL^^^^0
R&FL&SR&FR^^^^0
R&FL&SR&SL^^^^0
R&FL&SR&SR^^^^0
R&FR&LL&FL^^^^0
R&FR&LL&FR^^^^0
R&FR&LL&SL^^^^0
R&FR&LL&SR^^^^0
R&FR&LR&FL^^^^0
R&FR&LR&FR^^^^0
R&FR&LR&SL^^^^0
R&FR&LR&SR^^^^0
R&FR&ML&FL^^^^0
R&FR&ML&FR^^^^0
R&FR&ML&SL^^^^0
R&FR&ML&SR^^^^0
R&FR&MR&FL^^^^0
R&FR&MR&FR^^^^0
R&FR&MR&SL^^^^0
R&FR&MR&SR^^^^0
R&FR&SL&FL^^^^0
R&FR&SL&FR^^^^0
R&FR&SL&SL^^^^0
R&FR&SL&SR^^^^0
R&FR&SR&FL^^^^0
R&FR&SR&FR^^^^0
R&FR&SR&SL^^^^0
R&FR&SR&SR^^^^0
R&SL&LL&FL^^^^0
R&SL&LL&FR^^^^0
R&SL&LL&SL^^^^0
R&SL&LL&SR^^^^0
R&SL&LR&FL^^^^0
R&SL&LR&FR^^^^0
R&SL&LR&SL^^^^0
R&SL&LR&SR^^^^0
R&SL&ML&FL^^^^0
R&SL&ML&FR^^^^0
R&SL&ML&SL^^^^0
R&SL&ML&SR^^^^0
R&SL&MR&FL^^^^0
R&SL&MR&FR^^^^0
R&SL&MR&SL^^^^0
R&SL&MR&SR^^^^0
R&SL&SL&FL^^^^0
R&SL&SL&FR^^^^0
R&SL&SL&SL^^^^0
R&SL&SL&SR^^^^0
R&SL&SR&FL^^^^0
R&SL&SR&FR^^^^0
R&SL&SR&SL^^^^0
R&SL&SR&SR^^^^0
R&SR&LL&FL^^^^0
R&SR&LL&FR^^^^0
R&SR&LL&SL^^^^0
R&SR&LL&SR^^^^0
R&SR&LR&FL^^^^0
R&SR&LR&FR^^^^0
R&SR&LR&SL^^^^0
R&SR&LR&SR^^^^0
R&SR&ML&FL^^^^0
R&SR&ML&FR^^^^0
R&SR&ML&SL^^^^0
R&SR&ML&SR^^^^0
R&SR&MR&FL^^^^0
R&SR&MR&FR^^^^0
R&SR&MR&SL^^^^0
R&SR&MR&SR^^^^0
R&SR&SL&FL^^^^0
R&SR&SL&FR^^^^0
R&SR&SL&SL^^^^0
R&SR&SL&SR^^^^0
R&SR&SR&FL^^^^0
R&SR&SR&FR^^^^0
R&SR&SR&SL^^^^0
R&SR&SR&SR^^^^0
;;;;;;;;;;
